Data Cleaning
…
Replace values with missing

Problem
Solution
Confirm

df_clean |> 
  count(end_na) 

# A tibble: 30 × 2
   end_na     n
    <dbl> <int>
 1   -99      1
 2   133.     1
 3   135.     1
 4   135.     1
 5   136.     1
 6   136.     1
 7   137.     1
 8   137.     1
 9   138.     1
10   138.     1
# ℹ 20 more rows
…
df_clean <- df_raw |>
  janitor::clean_names() |> 
  janitor::remove_empty(which = c("rows", "cols")) |> 
  mutate(
    ethnic_clean = case_when(
      ethnic %in%  c("hispanic", "Hispanic", "hispamnic") ~ "hispanic",
      ethnic %in%  c("NOT hispanic", "not hispanic") ~ "not hispanic",
    ),
    end_na_clean = na_if(end_na, -99)
  ) 

df_clean |> 
  count(end_na, end_na_clean) 

# A tibble: 30 × 3
   end_na end_na_clean     n
    <dbl>        <dbl> <int>
 1   -99           NA      1
 2   133.         133.     1
 3   135.         135.     1
 4   135.         135.     1
 5   136.         136.     1
 6   136.         136.     1
 7   137.         137.     1
 8   137.         137.     1
 9   138.         138.     1
10   138.         138.     1
# ℹ 20 more rows
…
Rows: 30
Columns: 1
$ end_emo_clean <dbl> 30.27512, 37.11826, 37.07574, 44.92343, 63.22830, 41.864…

mean(df_clean[["end_emo_clean"]], na.rm = TRUE)

[1] 45.18381

df_clean |> 
  count(end_emo_clean, end_emo)

# A tibble: 30 × 3
   end_emo_clean end_emo                n
           <dbl> <chr>              <int>
 1          14.5 14.484200057523021     1
 2          23.2 23.18900885212669      1
 3          28.6 28.551119718792652     1
 4          30.3 30.275122309944972     1
 5          30.6 30.592724281914979     1
 6          36.4 36.381974110703389     1
 7          37.1 37.075744162542499     1
 8          37.1 37.118259536333433     1
 9          37.2 37.159835881588052     1
10          38.3 38.28942618055703      1
# ℹ 20 more rows
…
What does anything mean?

view(df_clean)

insert screenshot

# first import codebook
df_codebook <- read_excel(
  path = here("data", "messy_uc.xlsx"),
  sheet = "Codebook"
)
df_codebook

# A tibble: 33 × 5
   Variable       Details                                      Units Range ...5 
   <chr>          <chr>                                        <chr> <chr> <chr>
 1 pat_id         Patient Identifier                           digi… 001-… <NA> 
 2 treatment      Treatment for UC                             <NA>  upad… <NA> 
 3 start_date     Date of start of treatment                   digi… YYYY… <NA> 
 4 ethnic         Ethnicity - hispanic or not hispanic         <NA>  hisp… <NA> 
 5 race           Race - one of 7 choices                      <NA>  cauc… <NA> 
 6 dob            date of birth                                digi… YYYY… <NA> 
 7 start_bp       blood pressure at start - systolic/diastolic mm Hg syst… <NA> 
 8 pre/post_wt_kg weight in kilograms at start/end             kilo… 48-1… <NA> 
 9 start_mes      Mayo endoscopic Score at start of treatment  poin… 0-3   <NA> 
10 start_bss      Bowel symptom score at start                 poin… 0-100 QOL …
# ℹ 23 more rows
…
