shannon
…
−+

05:00

Replace values with missing

Problem
Solution
Confirm

df_clean |> 
  count(end_na) 

# A tibble: 30 × 2
   end_na     n
    <dbl> <int>
 1   -99      1
 2   133.     1
 3   135.     1
 4   135.     1
 5   136.     1
 6   137.     1
 7   137.     1
 8   138.     1
 9   138.     1
10   138.     1
# ℹ 20 more rows
…
df_clean <- df_raw |>
  janitor::clean_names() |> 
  janitor::remove_empty(which = c("rows", "cols")) |> 
  mutate(
    ethnic_clean = case_when(
      ethnic %in%  c("hispanic", "Hispanic", "hispamnic") ~ "hispanic",
      ethnic %in%  c("NOT hispanic", "not hispanic") ~ "not hispanic",
    ),
    end_na_clean = na_if(end_na, -99)
  ) 

df_clean |> 
  count(end_na, end_na_clean) 

# A tibble: 30 × 3
   end_na end_na_clean     n
    <dbl>        <dbl> <int>
 1   -99           NA      1
 2   133.         133.     1
 3   135.         135.     1
 4   135.         135.     1
 5   136.         136.     1
 6   137.         137.     1
 7   137.         137.     1
 8   138.         138.     1
 9   138.         138.     1
10   138.         138.     1
# ℹ 20 more rows
…
Rows: 30
Columns: 1
$ end_emo_clean <dbl> 31.98053, 43.15496, 36.88112, 58.670…

mean(df_clean[["end_emo_clean"]], na.rm = TRUE)

[1] 44.78813

df_clean |> 
  count(end_emo_clean, end_emo)

# A tibble: 30 × 3
   end_emo_clean end_emo                n
           <dbl> <chr>              <int>
 1          26.2 26.162987564588903     1
 2          27.0 27.000188739872502     1
 3          27.4 27.370965295845295     1
 4          28.0 27.976656095216335     1
 5          29.8 29.839211956263874     1
 6          32.0 31.980531232702354     1
 7          33.1 33.122563864954309     1
 8          34.6 34.593046073414015     1
 9          36.9 36.881123946451076     1
10          37.1 37.098188331548307     1
# ℹ 20 more rows
…
df_clean |> 
  select(start_date, start_date_clean) |> 
  glimpse()

Rows: 30
Columns: 2
$ start_date       <dbl> 44208, 44215, 44230, 44245, 44255…
$ start_date_clean <date> 2021-01-12, 2021-01-19, 2021-02-…

df_clean |> 
  count(start_date, start_date_clean) 

# A tibble: 30 × 3
   start_date start_date_clean     n
        <dbl> <date>           <int>
 1      44208 2021-01-12           1
 2      44215 2021-01-19           1
 3      44230 2021-02-03           1
 4      44245 2021-02-18           1
 5      44255 2021-02-28           1
 6      44259 2021-03-04           1
 7      44264 2021-03-09           1
 8      44276 2021-03-21           1
 9      44278 2021-03-23           1
10      44297 2021-04-11           1
# ℹ 20 more rows
…
# first import codebook
df_codebook <- read_excel(
  path = here("data", "messy_uc.xlsx"),
  sheet = "Codebook"
)

New names:
• `` -> `...5`

df_codebook

# A tibble: 33 × 5
   Variable       Details                  Units Range ...5 
   <chr>          <chr>                    <chr> <chr> <chr>
 1 pat_id         Patient Identifier       digi… 001-… <NA> 
 2 treatment      Treatment for UC         <NA>  upad… <NA> 
 3 start_date     Date of start of treatm… digi… YYYY… <NA> 
 4 ethnic         Ethnicity - hispanic or… <NA>  hisp… <NA> 
 5 race           Race - one of 7 choices  <NA>  cauc… <NA> 
 6 dob            date of birth            digi… YYYY… <NA> 
 7 start_bp       blood pressure at start… mm Hg syst… <NA> 
 8 pre/post_wt_kg weight in kilograms at … kilo… 48-1… <NA> 
 9 start_mes      Mayo endoscopic Score a… poin… 0-3   <NA> 
10 start_bss      Bowel symptom score at … poin… 0-100 QOL …
# ℹ 23 more rows
…
