peter
…
We end up with wide, rather than tall data

# A tibble: 6 × 8
  pat_id treatment start_mes end_mes start_bss end_bss
  <chr>  <chr>         <dbl>   <dbl>     <dbl>   <dbl>
1 001    upa               3       0      75.5    9.46
2 002    uste              2       1      53.6   31.6 
3 003    oza               1       1      25.5   25.5 
4 004    upa               3       1      79.4   35.4 
5 005    oza               3       2      79.5   57.5 
6 006    uste              2       1      54.5   32.5 
# ℹ 2 more variables: start_emo <dbl>, end_emo <dbl>

# A tibble: 180 × 4
   pat_id treatment measure   score
   <chr>  <chr>     <chr>     <dbl>
 1 001    upa       start_mes  3   
 2 001    upa       end_mes    0   
 3 001    upa       start_bss 75.5 
 4 001    upa       end_bss    9.46
 5 001    upa       start_emo 73.3 
 6 001    upa       end_emo   32.0 
 7 002    uste      start_mes  2   
 8 002    uste      end_mes    1   
 9 002    uste      start_bss 53.6 
10 002    uste      end_bss   31.6 
# ℹ 170 more rows

Reshaping your data with tidyr

R (and most R functions) are vectorized to handle tall data

One small observation per row

Most analyses in R are easier with tall data

# A tibble: 180 × 4
   pat_id treatment measure   score
   <chr>  <chr>     <chr>     <dbl>
 1 001    upa       start_mes  3   
 2 001    upa       end_mes    0   
 3 001    upa       start_bss 75.5 
 4 001    upa       end_bss    9.46
 5 001    upa       start_emo 73.3 
 6 001    upa       end_emo   32.0 
 7 002    uste      start_mes  2   
 8 002    uste      end_mes    1   
 9 002    uste      start_bss 53.6 
10 002    uste      end_bss   31.6 
# ℹ 170 more rows
…
Details from the tidyverse help page are here

data is your dataframe/tibble - you can pipe this in

cols = columns to pivot, as a vector of names, or by number, or selected with tidyselect functions

names_to = A character vector specifying the new column or columns to create from the information stored in the column names of data specified by cols.

values_to = A string specifying the name of the column to create from the data stored in cell values.

Pivoting Longer (Example)

Let’s start with the wide version (selected columns from messy_uc)

# A tibble: 30 × 8
   pat_id treatment start_mes end_mes start_bss end_bss
   <chr>  <chr>         <dbl>   <dbl>     <dbl>   <dbl>
 1 001    upa               3       0      75.5    9.46
 2 002    uste              2       1      53.6   31.6 
 3 003    oza               1       1      25.5   25.5 
 4 004    upa               3       1      79.4   35.4 
 5 005    oza               3       2      79.5   57.5 
 6 006    uste              2       1      54.5   32.5 
 7 007    uste              3       2      79.0   57.0 
 8 008    oza               3       2      79.0   57.0 
 9 009    upa               2       0      53.1    9.06
10 010    oza               3       1      77.4   33.4 
# ℹ 20 more rows
# ℹ 2 more variables: start_emo <dbl>, end_emo <dbl>

Note that there are 30 rows, one per patient, with 6 measured quantities for each patient.

Pivoting Longer (Example)

This is the tall version we want to end up with.

# A tibble: 180 × 4
   pat_id treatment measure   score
   <chr>  <chr>     <chr>     <dbl>
 1 001    upa       start_mes  3   
 2 001    upa       end_mes    0   
 3 001    upa       start_bss 75.5 
 4 001    upa       end_bss    9.46
 5 001    upa       start_emo 73.3 
 6 001    upa       end_emo   32.0 
 7 002    uste      start_mes  2   
 8 002    uste      end_mes    1   
 9 002    uste      start_bss 53.6 
10 002    uste      end_bss   31.6 
# ℹ 170 more rows

Note that there now 180 rows (30*6), with one row per observation measure.

Doing the pivot_longer()

What values do we want for these key arguments in order to pivot_longer?

cols (which columns to pivot)

names_to (variable to store the names)

values_to (variable to store the values)

# A tibble: 30 × 8
   pat_id treatment start_mes end_mes start_bss end_bss
   <chr>  <chr>         <dbl>   <dbl>     <dbl>   <dbl>
 1 001    upa               3       0      75.5    9.46
 2 002    uste              2       1      53.6   31.6 
 3 003    oza               1       1      25.5   25.5 
 4 004    upa               3       1      79.4   35.4 
 5 005    oza               3       2      79.5   57.5 
 6 006    uste              2       1      54.5   32.5 
 7 007    uste              3       2      79.0   57.0 
 8 008    oza               3       2      79.0   57.0 
 9 009    upa               2       0      53.1    9.06
10 010    oza               3       1      77.4   33.4 
# ℹ 20 more rows
# ℹ 2 more variables: start_emo <dbl>, end_emo <dbl>

Pivoting Longer In Action

Problem: Wide
Code: pivot_longer
Result: Tall

# A tibble: 30 × 8
   pat_id treatment start_mes end_mes start_bss end_bss
   <chr>  <chr>         <dbl>   <dbl>     <dbl>   <dbl>
 1 001    upa               3       0      75.5    9.46
 2 002    uste              2       1      53.6   31.6 
 3 003    oza               1       1      25.5   25.5 
 4 004    upa               3       1      79.4   35.4 
 5 005    oza               3       2      79.5   57.5 
 6 006    uste              2       1      54.5   32.5 
 7 007    uste              3       2      79.0   57.0 
 8 008    oza               3       2      79.0   57.0 
 9 009    upa               2       0      53.1    9.06
10 010    oza               3       1      77.4   33.4 
# ℹ 20 more rows
# ℹ 2 more variables: start_emo <dbl>, end_emo <dbl>

wide |> 
  pivot_longer(
    cols = "start_mes":"end_emo", 
    # could also use 3:8
               names_to = "measure",
               values_to = "score")

# A tibble: 180 × 4
   pat_id treatment measure   score
   <chr>  <chr>     <chr>     <dbl>
 1 001    upa       start_mes  3   
 2 001    upa       end_mes    0   
 3 001    upa       start_bss 75.5 
 4 001    upa       end_bss    9.46
 5 001    upa       start_emo 73.3 
 6 001    upa       end_emo   32.0 
 7 002    uste      start_mes  2   
 8 002    uste      end_mes    1   
 9 002    uste      start_bss 53.6 
10 002    uste      end_bss   31.6 
# ℹ 170 more rows
…
Arguments

col

sep

into

tall |> 
  separate(col = "measure",
           sep = "_",
           into = c("timept", "measure"))

# A tibble: 180 × 5
   pat_id treatment timept measure score
   <chr>  <chr>     <chr>  <chr>   <dbl>
 1 001    upa       start  mes      3   
 2 001    upa       end    mes      0   
 3 001    upa       start  bss     75.5 
 4 001    upa       end    bss      9.46
 5 001    upa       start  emo     73.3 
 6 001    upa       end    emo     32.0 
 7 002    uste      start  mes      2   
 8 002    uste      end    mes      1   
 9 002    uste      start  bss     53.6 
10 002    uste      end    bss     31.6 
# ℹ 170 more rows

You can do this within pivot_longer with one more argument (if you are fancy)

wide |> 
  pivot_longer(cols = 3:8,
    names_to = c("timept", "measure"),
    names_sep = "_",
    values_to = "score")

# A tibble: 180 × 5
   pat_id treatment timept measure score
   <chr>  <chr>     <chr>  <chr>   <dbl>
 1 001    upa       start  mes      3   
 2 001    upa       end    mes      0   
 3 001    upa       start  bss     75.5 
 4 001    upa       end    bss      9.46
 5 001    upa       start  emo     73.3 
 6 001    upa       end    emo     32.0 
 7 002    uste      start  mes      2   
 8 002    uste      end    mes      1   
 9 002    uste      start  bss     53.6 
10 002    uste      end    bss     31.6 
# ℹ 170 more rows
…
Fill in the blanks to pivot this dataset to tall format, with columns for the intestinal location and the teer value.

endo_data |> 
  pivot_longer(
    cols = "duod_teer":"colon_teer",
    names_pattern = "(.+)_teer",
    names_to = c("location"),
    values_to = "teer"
  )

Run the code, and look at the resulting table.

# A tibble: 30 × 4
   pat_id portal_htn location  teer
    <dbl>      <dbl> <chr>    <dbl>
 1      1          1 duod      4.33
 2      1          1 ileal    14.6 
 3      1          1 colon    16.2 
 4      2          0 duod     11.7 
 5      2          0 ileal    16.0 
 6      2          0 colon    19.0 
 7      3          1 duod      4.12
 8      3          1 ileal    13.8 
 9      3          1 colon    15.2 
10      4          1 duod      4.62
# ℹ 20 more rows
…
03:00

Pivoting Wider

Code to Pivot
Wider Result

tall |> 
  pivot_wider(
    id_cols = c(pat_id, treatment), # Variables not pivoted
    names_from = measure, # will become column names
    values_from = score # will become values
  )

# A tibble: 30 × 8
   pat_id treatment start_mes end_mes start_bss end_bss
   <chr>  <chr>         <dbl>   <dbl>     <dbl>   <dbl>
 1 001    upa               3       0      75.5    9.46
 2 002    uste              2       1      53.6   31.6 
 3 003    oza               1       1      25.5   25.5 
 4 004    upa               3       1      79.4   35.4 
 5 005    oza               3       2      79.5   57.5 
 6 006    uste              2       1      54.5   32.5 
 7 007    uste              3       2      79.0   57.0 
 8 008    oza               3       2      79.0   57.0 
 9 009    upa               2       0      53.1    9.06
10 010    oza               3       1      77.4   33.4 
# ℹ 20 more rows
# ℹ 2 more variables: start_emo <dbl>, end_emo <dbl>
…
The Problem
The Code
The Result

We can fill in (pad) the unobserved weekend days with the pad() function.

fcp |> 
  pad(group = "pat_id") |> 
  tidyr::fill(pat_id) |> # fill in the missing pat_ids
  print(n = 14)

pad applied on the interval: day

# A tibble: 21 × 3
   pat_id date         fcp
   <chr>  <date>     <dbl>
 1 001    2022-12-01  1574
 2 001    2022-12-02  1323
 3 001    2022-12-03    NA
 4 001    2022-12-04    NA
 5 001    2022-12-05   673
 6 001    2022-12-06   314
 7 001    2022-12-07   168
 8 002    2022-11-30  1393
 9 002    2022-12-01  1014
10 002    2022-12-02   812
11 002    2022-12-03    NA
12 002    2022-12-04    NA
13 002    2022-12-05   247
14 002    2022-12-06   118
# ℹ 7 more rows
…
