Data Cleaning - Data Cleaning: Exercises
…
SP2

Explore the type of and values of start_plt.

Show the code solution

df_clean |> 
  count(start_plt)

# A tibble: 28 × 2
   start_plt        n
   <chr>        <int>
 1 115K/microL      1
 2 1550K/microL     1
 3 177K/microL      1
 4 188K/microL      1
 5 197K/microL      1
 6 204K/microL      1
 7 249K/microL      1
 8 258K/microL      1
 9 273K/microL      1
10 288K/microL      1
# ℹ 18 more rows
…
Confirm the new start_plt_clean variable is coded correctly.

Show the code solution

df_clean |> 
  count(start_plt_clean, start_plt)

# A tibble: 28 × 3
   start_plt_clean start_plt       n
             <dbl> <chr>       <int>
 1              37 37K/microL      1
 2             115 115K/microL     1
 3             177 177K/microL     1
 4             188 188K/microL     1
 5             197 197K/microL     1
 6             204 204K/microL     1
 7             249 249K/microL     1
 8             258 258K/microL     1
 9             273 273K/microL     1
10             288 288K/microL     1
# ℹ 18 more rows
…
